…
``` r
(Scooters
 %>% filter(as.Date(StartDate) >= as.Date("2019-07-01"))
 %>% mutate(HourOfDay.Factor = as.factor(HourNum))
 %>% group_by(HourOfDay.Factor)
 %>% summarize(count=n())
 %>% filter(HourOfDay.Factor != "24")
 -> Scooter_Hour_Summary  
)
```

    ## # A tibble: 24 x 2
    ##    HourOfDay.Factor count
    ##    <fct>            <int>
    ##  1 0                  133
    ##  2 1                  105
    ##  3 2                  146
    ##  4 3                  299
    ##  5 4                  412
    ##  6 5                  676
    ##  7 6                  787
    ##  8 7                 1291
    ##  9 8                 1663
    ## 10 9                 1934
    ## # ... with 14 more rows
…
``` r
(Scooter_Hour_Summary
  %>% mutate(GrandTotal=sum(count))
  %>% mutate(Percent = count / GrandTotal)
  %>% mutate(Total = cumsum(count))
  %>% mutate(PercentTotal = cumsum(Percent))
  -> Scooter_Hour_Summary_Percentages  
)
```

    ## # A tibble: 24 x 6
    ##    HourOfDay.Factor count GrandTotal Percent Total PercentTotal
    ##    <fct>            <int>      <int>   <dbl> <int>        <dbl>
    ##  1 0                  133      54718 0.00243   133      0.00243
    ##  2 1                  105      54718 0.00192   238      0.00435
    ##  3 2                  146      54718 0.00267   384      0.00702
    ##  4 3                  299      54718 0.00546   683      0.0125 
    ##  5 4                  412      54718 0.00753  1095      0.0200 
    ##  6 5                  676      54718 0.0124   1771      0.0324 
    ##  7 6                  787      54718 0.0144   2558      0.0467 
    ##  8 7                 1291      54718 0.0236   3849      0.0703 
    ##  9 8                 1663      54718 0.0304   5512      0.101  
    ## 10 9                 1934      54718 0.0353   7446      0.136  
    ## # ... with 14 more rows
…
